<?xml version="1.0" encoding="UTF-8" standalone="no"?>
<svg
   xmlns:dc="http://purl.org/dc/elements/1.1/"
   xmlns:cc="http://creativecommons.org/ns#"
   xmlns:rdf="http://www.w3.org/1999/02/22-rdf-syntax-ns#"
   xmlns:svg="http://www.w3.org/2000/svg"
   xmlns="http://www.w3.org/2000/svg"
   xmlns:sodipodi="http://sodipodi.sourceforge.net/DTD/sodipodi-0.dtd"
   xmlns:inkscape="http://www.inkscape.org/namespaces/inkscape"
   width="256"
   height="256"
   viewBox="0 0 67.733332 67.733335"
   version="1.1"
   id="svg8"
   sodipodi:docname="prototype_commun_culturel_frama_mono.svg"
   inkscape:export-filename="/home/yann/Documents/Framasoft/depots_git/Graphismes/logo_commun_culturel_Frama/prototype_commun_culturel_frama_mono.png"
   inkscape:export-xdpi="96"
   inkscape:export-ydpi="96"
   inkscape:version="1.0.2 (e86c870879, 2021-01-15)">
  <defs
     id="defs2" />
  <sodipodi:namedview
     id="base"
     pagecolor="#ffffff"
     bordercolor="#666666"
     borderopacity="1.0"
     inkscape:pageopacity="0.0"
     inkscape:pageshadow="2"
     inkscape:zoom="1.4"
     inkscape:cx="152.96236"
     inkscape:cy="273.58373"
     inkscape:document-units="px"
     inkscape:current-layer="layer1"
     inkscape:document-rotation="0"
     showgrid="false"
     units="px"
     inkscape:window-width="1920"
     inkscape:window-height="1061"
     inkscape:window-x="1920"
     inkscape:window-y="0"
     inkscape:window-maximized="1" />
  <metadata
     id="metadata5">
    <rdf:RDF>
      <cc:Work
         rdf:about="">
        <dc:format>image/svg+xml</dc:format>
        <dc:type
           rdf:resource="http://purl.org/dc/dcmitype/StillImage" />
        <dc:title />
      </cc:Work>
    </rdf:RDF>
  </metadata>
  <g
     inkscape:label="Calque 1"
     inkscape:groupmode="layer"
     id="layer1">
    <path
       id="communculturelframabook"
       style="color:#000000;font-style:normal;font-variant:normal;font-weight:normal;font-stretch:normal;font-size:medium;line-height:normal;font-family:sans-serif;font-variant-ligatures:normal;font-variant-position:normal;font-variant-caps:normal;font-variant-numeric:normal;font-variant-alternates:normal;font-variant-east-asian:normal;font-feature-settings:normal;font-variation-settings:normal;text-indent:0;text-align:start;text-decoration:none;text-decoration-line:none;text-decoration-style:solid;text-decoration-color:#000000;letter-spacing:normal;word-spacing:normal;text-transform:none;writing-mode:lr-tb;direction:ltr;text-orientation:mixed;dominant-baseline:auto;baseline-shift:baseline;text-anchor:start;white-space:normal;shape-padding:0;shape-margin:0;inline-size:0;clip-rule:nonzero;display:inline;overflow:visible;visibility:visible;opacity:1;isolation:auto;mix-blend-mode:normal;color-interpolation:sRGB;color-interpolation-filters:linearRGB;solid-color:#000000;solid-opacity:1;vector-effect:none;fill:#000000;fill-opacity:1;fill-rule:evenodd;stroke:none;stroke-width:7.527;stroke-linecap:butt;stroke-linejoin:miter;stroke-miterlimit:4;stroke-dasharray:none;stroke-dashoffset:0;stroke-opacity:1;color-rendering:auto;image-rendering:auto;shape-rendering:auto;text-rendering:auto;enable-background:accumulate;stop-color:#000000;stop-opacity:1"
       d="m 48.873502,8.5981807 c -0.15444,2.833e-4 -0.309245,0.00311 -0.464055,0.00723 l 0.422714,1.5745803 1.101225,4.112928 0.516763,1.929081 c 3.720563,0.501668 7.037244,2.845593 8.704379,6.420797 2.246373,4.817388 0.857469,10.492557 -3.359484,13.728361 -4.216955,3.235801 -10.059122,3.108156 -14.130922,-0.308509 l -4.837946,5.767607 c 3.371329,2.828898 7.513532,4.295775 11.68559,4.386812 4.172059,0.09104 8.373909,-1.194001 11.865428,-3.873148 6.983031,-5.358304 9.318984,-14.905558 5.599141,-22.882842 C 62.837713,12.730251 56.072761,8.5849782 48.873502,8.5981807 Z M 18.438151,8.6121335 C 14.526122,8.6883393 10.62892,9.9766794 7.3556232,12.488382 0.37259088,17.846683 -1.9618138,27.391874 1.7580322,35.369157 4.9637317,42.243841 11.952795,46.41863 19.323368,46.223273 L 18.902205,44.650759 17.80098,40.537316 17.283183,38.608752 C 13.562539,38.107269 10.24529,35.764423 8.5782877,32.189506 6.3319156,27.372115 7.7203011,21.694879 11.937256,18.459078 c 4.216954,-3.235802 10.059121,-3.108157 14.13092,0.308508 l 4.837948,-5.76554 C 27.534793,10.173147 23.392591,8.7042018 19.220532,8.6131669 c -0.260754,-0.00569 -0.521579,-0.00611 -0.782381,-0.00103 z M 44.64327,9.0932409 C 36.884977,10.905196 31.16145,17.422237 30.237948,25.200267 h -4.735629 v 4.430739 h 4.380611 c -0.855712,4.327922 -4.176033,7.822033 -8.626863,8.808765 -0.03857,0.0086 -0.07718,0.01511 -0.115755,0.02325 l 0.295072,1.101741 1.101741,4.112927 0.552421,2.06189 C 30.848321,43.92819 36.570729,37.409452 37.494352,29.631006 h 4.736661 v -4.430739 h -4.381645 c 0.855879,-4.328279 4.177837,-7.82249 8.628933,-8.80928 0.0384,-0.0085 0.07683,-0.01515 0.115236,-0.02325 l -0.294555,-1.100191 -1.103807,-4.112927 z"
       inkscape:label="#logo" />
    <text
       transform="scale(0.98308784,1.0172031)"
       id="Collection"
       y="56.907993"
       x="-0.38517106"
       style="font-style:italic;font-variant:normal;font-weight:bold;font-stretch:normal;font-size:11.4928px;line-height:0%;font-family:'URW Chancery L';-inkscape-font-specification:'URW Chancery L Bold Italic';font-variation-settings:normal;letter-spacing:-0.404678px;word-spacing:0px;display:inline;vector-effect:none;fill:#000000;fill-opacity:1;stroke:none;stroke-width:0.264582;stroke-linecap:butt;stroke-linejoin:miter;stroke-miterlimit:4;stroke-dasharray:none;stroke-dashoffset:0;stroke-opacity:1;stop-color:#000000"
       xml:space="preserve"
       inkscape:label="Collection"><tspan
         style="font-style:normal;font-variant:normal;font-weight:bold;font-stretch:normal;font-size:7.73823px;line-height:1.25;font-family:sans-serif;-inkscape-font-specification:'Sans Bold';font-variation-settings:normal;vector-effect:none;fill:#000000;fill-opacity:1;stroke-width:0.264582;stroke-linecap:butt;stroke-linejoin:miter;stroke-miterlimit:4;stroke-dasharray:none;stroke-dashoffset:0;stroke-opacity:1;stop-color:#000000;stop-opacity:1"
         y="56.907993"
         x="-0.38517106"
         id="tspan38217-0"
         sodipodi:role="line">Commun Culturel</tspan></text>
    <text
       transform="scale(0.98308784,1.0172031)"
       id="Collection-7"
       y="66.417114"
       x="-1.1066276"
       style="font-style:italic;font-variant:normal;font-weight:bold;font-stretch:normal;font-size:17.9039px;line-height:0%;font-family:'URW Chancery L';-inkscape-font-specification:'URW Chancery L Bold Italic';font-variation-settings:normal;letter-spacing:0.197221px;word-spacing:0px;display:inline;vector-effect:none;fill:#000000;fill-opacity:1;stroke:none;stroke-width:0.264582;stroke-linecap:butt;stroke-linejoin:miter;stroke-miterlimit:4;stroke-dasharray:none;stroke-dashoffset:0;stroke-opacity:1;stop-color:#000000"
       xml:space="preserve"
       inkscape:label="Collection"><tspan
         style="font-style:normal;font-variant:normal;font-weight:bold;font-stretch:normal;font-size:12.055px;line-height:1.25;font-family:sans-serif;-inkscape-font-specification:'Sans Bold';font-variation-settings:normal;vector-effect:none;fill:#000000;fill-opacity:1;stroke-width:0.264582;stroke-linecap:butt;stroke-linejoin:miter;stroke-miterlimit:4;stroke-dasharray:none;stroke-dashoffset:0;stroke-opacity:1;stop-color:#000000;stop-opacity:1"
         y="66.417114"
         x="-1.1066276"
         id="tspan38217-0-5"
         sodipodi:role="line">Framasoft</tspan></text>
  </g>
</svg>
