<?xml version="1.0" encoding="UTF-8" standalone="no"?>
<svg
   xmlns:dc="http://purl.org/dc/elements/1.1/"
   xmlns:cc="http://creativecommons.org/ns#"
   xmlns:rdf="http://www.w3.org/1999/02/22-rdf-syntax-ns#"
   xmlns:svg="http://www.w3.org/2000/svg"
   xmlns="http://www.w3.org/2000/svg"
   xmlns:xlink="http://www.w3.org/1999/xlink"
   xmlns:sodipodi="http://sodipodi.sourceforge.net/DTD/sodipodi-0.dtd"
   xmlns:inkscape="http://www.inkscape.org/namespaces/inkscape"
   width="1024"
   height="1024"
   id="svg4771"
   version="1.1"
   inkscape:version="1.0.2 (e86c870879, 2021-01-15)"
   sodipodi:docname="DLEC-logo.svg"
   inkscape:export-filename="/home/yann/Documents/Framasoft/depots_git/Graphismes/logos/DLEC-logo.png"
   inkscape:export-xdpi="96"
   inkscape:export-ydpi="96">
  <defs
     id="defs4773">
    <rect
       x="-9.1628523"
       y="67.454369"
       width="285.29214"
       height="98.042946"
       id="rect897" />
  </defs>
  <sodipodi:namedview
     id="base"
     pagecolor="#ffffff"
     bordercolor="#666666"
     borderopacity="1.0"
     inkscape:pageopacity="0.0"
     inkscape:pageshadow="2"
     inkscape:zoom="0.70710678"
     inkscape:cx="406.63769"
     inkscape:cy="436.4473"
     inkscape:current-layer="layer1"
     showgrid="true"
     inkscape:document-units="px"
     inkscape:grid-bbox="true"
     inkscape:window-width="1663"
     inkscape:window-height="1016"
     inkscape:window-x="2092"
     inkscape:window-y="0"
     inkscape:window-maximized="0"
     inkscape:document-rotation="0" />
  <metadata
     id="metadata4776">
    <rdf:RDF>
      <cc:Work
         rdf:about="">
        <dc:format>image/svg+xml</dc:format>
        <dc:type
           rdf:resource="http://purl.org/dc/dcmitype/StillImage" />
        <dc:title />
      </cc:Work>
    </rdf:RDF>
  </metadata>
  <g
     inkscape:groupmode="layer"
     id="layer2"
     inkscape:label="Archived"
     style="display:none">
    <g
       id="g1549"
       style="display:inline;fill:#725794;fill-opacity:1;stroke-width:0.484772"
       inkscape:export-xdpi="13.896021"
       inkscape:export-ydpi="13.896021"
       transform="matrix(1.3843088,0,0,1.3843088,73.415715,50.351017)">
      <circle
         id="circle1543"
         r="55"
         cy="180.351"
         cx="74.912003"
         style="fill:#725794;fill-opacity:1;stroke-width:0.484772" />
      <circle
         id="circle1545"
         r="42.5"
         cy="317.44199"
         cx="137.603"
         style="fill:#725794;fill-opacity:1;stroke-width:0.484772" />
      <circle
         id="circle1547"
         r="31"
         cy="434.26501"
         cx="189.825"
         style="fill:#725794;fill-opacity:1;stroke-width:0.484772" />
    </g>
    <g
       id="g1555"
       style="display:inline;fill:#dd6418;fill-opacity:1;stroke-width:0.484772"
       inkscape:export-xdpi="13.896021"
       inkscape:export-ydpi="13.896021"
       transform="matrix(1.3843088,0,0,1.3843088,73.415715,50.351017)">
      <circle
         id="circle1551"
         r="26"
         cy="412.85901"
         cx="515.92499"
         style="fill:#dd6418;fill-opacity:1;stroke-width:0.484772" />
      <circle
         id="circle1553"
         r="21"
         cy="484.311"
         cx="499.70901"
         style="fill:#dd6418;fill-opacity:1;stroke-width:0.484772" />
    </g>
  </g>
  <g
     id="layer1"
     inkscape:label="Framabook"
     inkscape:groupmode="layer"
     style="display:inline">
    <path
       id="path1557"
       d="m 732.25559,222.72381 c -8.41618,2.42385 -35.25984,-1.25938 -35.25984,-1.25938 7.39762,4.81228 12.28357,18.34532 12.05549,27.48682 -26.34927,-3.40132 -37.2743,-12.12349 -61.36545,-24.98931 0,0.51 17.02644,19.82003 32.81191,31.68429 30.03533,22.57253 56.87617,50.04661 73.80202,75.54307 8.31987,12.53148 10.15864,14.06143 10.89387,9.05933 2.19295,-14.93551 -3.61807,-68.33527 -28.44445,-103.31463 -3.53307,-4.97804 -4.04731,-10.41221 -4.49213,-14.21019 z"
       inkscape:connector-curvature="0"
       style="font-variation-settings:normal;opacity:1;vector-effect:none;fill:#cc2d18;fill-opacity:1;stroke-width:0.999994;stroke-linecap:butt;stroke-linejoin:miter;stroke-miterlimit:4;stroke-dasharray:none;stroke-dashoffset:0;stroke-opacity:1;stop-color:#000000;stop-opacity:1"
       inkscape:export-xdpi="13.896021"
       inkscape:export-ydpi="13.896021" />
    <path
       style="font-variation-settings:normal;opacity:1;vector-effect:none;fill:#cc2d18;fill-opacity:1;stroke-width:0.977184;stroke-linecap:butt;stroke-linejoin:miter;stroke-miterlimit:4;stroke-dasharray:none;stroke-dashoffset:0;stroke-opacity:1;stop-color:#000000;stop-opacity:1"
       sodipodi:type="inkscape:offset"
       inkscape:radius="0"
       inkscape:original="M 1254.002 140.64453 C 1211.848 140.29144 1130.3824 156.66974 1112.2012 175.23633 C 1103.2477 184.37984 1106.658 184.68186 1130.041 176.82031 C 1155.1782 168.3693 1246.3138 162.97437 1256.0059 167.4043 C 1257.7943 168.2217 1269.3984 263.63073 1275.3477 319.41992 L 1290.6055 462.50391 L 1248.793 471.85352 C 1195.6186 483.74288 1128.0674 516.59826 1092.6016 547.82031 C 1064.3959 572.65125 1020.0873 634.48754 1012.2812 659.91602 C 1009.8312 667.89748 1011.369 673.3507 1015.8047 672.40625 C 1020.1348 671.48471 1023.8605 664.54877 1024.084 656.99414 C 1024.6403 638.20373 1090.1422 566.57892 1128.6777 542.62305 C 1166.208 519.29196 1226.0296 503.17306 1279.9844 501.85352 C 1301.5341 501.32661 1320.3412 500.53856 1321.7793 500.10156 C 1328.1652 498.15889 1282.7534 147.1328 1275.6445 143.74023 C 1271.3647 141.69807 1263.7298 140.72601 1254.002 140.64453 z M 1328.3594 225.66406 C 1313.6391 224.9729 1306.8251 228.56013 1306.998 236.9082 C 1307.1379 243.65047 1311.74 249.21264 1317.2266 249.27344 C 1324.3768 249.34915 1334.9701 326.20524 1340.8457 397.13281 C 1345.354 451.55552 1352.975 539.98996 1352.0605 542.39062 C 1351.1459 544.79123 1318.6068 549.73896 1279.75 553.38672 C 1240.8932 557.03445 1185.5315 567.51212 1156.7246 576.66992 C 1107.1861 592.41813 1033.937 635.43678 1028.9395 651.7168 C 1027.7081 655.8103 1052.0254 646.036 1083.0059 629.98242 C 1150.5738 594.96993 1236.6197 575.47139 1324.207 575.32031 L 1388.6445 575.2168 L 1370.4102 406.79297 C 1362.9553 337.22849 1351.0851 230.42149 1350.6914 229.09375 C 1350.2977 227.76593 1340.2483 226.22227 1328.3594 225.66406 z M 1364.0527 590.40039 C 1361.6745 591.63096 1360.8769 601.28131 1362.3281 613.85352 C 1364.6922 634.33882 1363.459 639.72857 1356.6113 638.82812 C 1264.4016 626.7043 1231.4832 624.32448 1192.832 626.98438 C 1146.4878 630.17365 1060.7579 651.95464 1039.5059 665.93945 C 1033.2542 670.05323 1055.5447 668.00166 1089.041 661.38086 C 1166.5002 646.07038 1255.421 648.57052 1334.9453 668.29297 C 1369.2743 676.80667 1398.4427 683.54126 1399.7637 683.25781 C 1401.0842 682.97452 1399.9851 662.61833 1397.3203 638.02344 C 1393.8589 606.07033 1389.4138 593.27181 1381.748 593.19141 C 1375.8473 593.12894 1368.3848 591.87558 1365.166 590.4043 C 1364.7637 590.22039 1364.3925 590.2246 1364.0527 590.40039 z M 1205.002 658.92969 C 1153.2356 657.54219 1098.9786 664.60987 1055.9004 679.04688 C 1032.0599 687.03663 1015.7537 693.51761 1019.6641 693.44531 C 1023.5748 693.37379 1043.019 692.2209 1062.873 690.88281 C 1116.1073 687.29512 1210.2994 708.44352 1277.6602 739.10742 C 1333.6558 764.59851 1335.9151 765.00067 1325.6367 747.61914 C 1317.1356 733.24351 1316.9472 724.47101 1324.748 706.21484 C 1336.8817 677.81909 1331.2605 674.32774 1255.4316 663.17578 C 1239.236 660.79392 1222.2574 659.39219 1205.002 658.92969 z "
       xlink:href="#path867-3-9"
       id="path866"
       transform="matrix(1.0233463,0,0,1.0233463,-426.0153,-50.157801)"
       inkscape:href="#path867-3-9"
       d="m 1254.002,140.64453 c -42.154,-0.35309 -123.6196,16.02521 -141.8008,34.5918 -8.9535,9.14351 -5.5432,9.44553 17.8398,1.58398 25.1372,-8.45101 116.2728,-13.84594 125.9649,-9.41601 1.7884,0.8174 13.3925,96.22643 19.3418,152.01562 l 15.2578,143.08399 -41.8125,9.34961 c -53.1744,11.88936 -120.7256,44.74474 -156.1914,75.96679 -28.2057,24.83094 -72.5143,86.66723 -80.3204,112.09571 -2.45,7.98146 -0.9122,13.43468 3.5235,12.49023 4.3301,-0.92154 8.0558,-7.85748 8.2793,-15.41211 0.5563,-18.79041 66.0582,-90.41522 104.5937,-114.37109 37.5303,-23.33109 97.3519,-39.44999 151.3067,-40.76953 21.5497,-0.52691 40.3568,-1.31496 41.7949,-1.75196 6.3859,-1.94267 -39.0259,-352.96876 -46.1348,-356.36133 -4.2798,-2.04216 -11.9147,-3.01422 -21.6425,-3.0957 z m 74.3574,85.01953 c -14.7203,-0.69116 -21.5343,2.89607 -21.3614,11.24414 0.1399,6.74227 4.742,12.30444 10.2286,12.36524 7.1502,0.0757 17.7435,76.9318 23.6191,147.85937 4.5083,54.42271 12.1293,142.85715 11.2148,145.25781 -0.9146,2.40061 -33.4537,7.34834 -72.3105,10.9961 -38.8568,3.64773 -94.2185,14.1254 -123.0254,23.2832 -49.5385,15.74821 -122.7876,58.76686 -127.7851,75.04688 -1.2314,4.0935 23.0859,-5.6808 54.0664,-21.73438 67.5679,-35.01249 153.6138,-54.51103 241.2011,-54.66211 l 64.4375,-0.10351 -18.2343,-168.42383 c -7.4549,-69.56448 -19.3251,-176.37148 -19.7188,-177.69922 -0.3937,-1.32782 -10.4431,-2.87148 -22.332,-3.42969 z m 35.6933,364.73633 c -2.3782,1.23057 -3.1758,10.88092 -1.7246,23.45313 2.3641,20.4853 1.1309,25.87505 -5.7168,24.9746 -92.2097,-12.12382 -125.1281,-14.50364 -163.7793,-11.84374 -46.3442,3.18927 -132.0741,24.97026 -153.3261,38.95507 -6.2517,4.11378 16.0388,2.06221 49.5351,-4.55859 77.4592,-15.31048 166.38,-12.81034 245.9043,6.91211 34.329,8.5137 63.4974,15.24829 64.8184,14.96484 1.3205,-0.28329 0.2214,-20.63948 -2.4434,-45.23437 -3.4614,-31.95311 -7.9065,-44.75163 -15.5723,-44.83203 -5.9007,-0.0625 -13.3632,-1.31583 -16.582,-2.78711 -0.4023,-0.18391 -0.7735,-0.1797 -1.1133,-0.004 z m -159.0507,68.5293 c -51.7664,-1.3875 -106.0234,5.68018 -149.1016,20.11719 -23.8405,7.98975 -40.1467,14.47073 -36.2363,14.39843 3.9107,-0.0715 23.3549,-1.22441 43.2089,-2.5625 53.2343,-3.58769 147.4264,17.56071 214.7872,48.22461 55.9956,25.49109 58.2549,25.89325 47.9765,8.51172 -8.5011,-14.37563 -8.6895,-23.14813 -0.8887,-41.4043 12.1337,-28.39575 6.5125,-31.8871 -69.3164,-43.03906 -16.1956,-2.38186 -33.1742,-3.78359 -50.4296,-4.24609 z" />
    <path
       id="path866-6"
       style="font-variation-settings:normal;display:inline;opacity:1;vector-effect:none;fill:#6a5687;fill-opacity:1;stroke-width:0.999994;stroke-linecap:butt;stroke-linejoin:miter;stroke-miterlimit:4;stroke-dasharray:none;stroke-dashoffset:0;stroke-opacity:1;stop-color:#000000;stop-opacity:1"
       d="m 100.15036,93.770256 c 43.07506,-0.36134 96.32707,16.399344 118.24921,35.399394 10.7958,9.35696 7.35983,9.66604 -17.97335,1.62095 -27.23363,-8.64831 -88.4195,-14.1692 -97.54657,-9.63584 -1.68414,0.83648 3.48335,98.47297 7.36055,155.56462 l 9.94445,146.42446 44.45875,9.56789 c 56.53957,12.16693 131.53666,45.78936 173.40751,77.74033 33.29964,25.41066 89.68823,88.69059 102.21875,114.71273 3.9329,8.16779 3.33328,13.74832 -1.37468,12.78183 -4.59579,-0.94305 -9.64742,-8.04093 -11.22559,-15.77193 C 423.74365,602.9456 343.9185,529.64861 300.20421,505.13347 257.63018,481.25768 193.53272,464.76247 138.08258,463.41212 115.93565,462.87291 96.548701,462.06646 94.998976,461.61926 88.116972,459.63123 71.886691,100.41 78.555551,96.938227 82.570486,94.84839 90.210002,93.853632 100.15036,93.770256 Z m -60.9067,87.004414 c 14.940504,-0.70729 22.554358,2.96368 23.868601,11.50665 1.061177,6.89968 -2.654818,12.5917 -8.258651,12.65392 -7.303607,0.0774 -4.415746,78.72787 2.240967,151.31134 5.107743,55.69327 13.105486,146.19233 14.470158,148.64903 1.364756,2.45665 35.547315,7.51989 75.962865,11.25282 40.41555,3.73289 98.94131,14.45516 130.05657,23.82677 53.50807,16.11588 136.15149,60.13885 144.1737,76.79895 1.99134,4.18907 -24.63961,-5.81343 -59.21097,-22.24181 C 287.14742,558.70245 195.60973,538.74868 105.9506,538.59408 L 39.990232,538.48815 28.56541,366.13225 C 23.768349,294.94371 16.837199,185.64316 17.002922,184.28443 c 0.165709,-1.35881 10.173987,-2.93852 22.240738,-3.50976 z m 28.624678,373.25156 c 2.653534,1.25929 5.193553,11.13495 5.954196,24.00068 1.239908,20.96354 3.464641,26.47912 10.31137,25.55766 92.196826,-12.40687 125.458656,-14.84226 165.487336,-12.12025 47.99586,3.26373 139.61787,25.55322 163.86406,39.86452 7.13249,4.20982 -16.04488,2.11036 -51.50583,-4.66501 -82.00243,-15.66793 -172.55261,-13.10941 -250.41056,7.07348 -33.609694,8.71246 -62.256096,15.60428 -63.658568,15.3142 -1.401932,-0.2899 -3.913311,-21.12132 -5.579577,-46.29042 -2.165435,-32.69909 0.0973,-45.79641 7.927701,-45.87868 6.027296,-0.064 13.440141,-1.34655 16.47128,-2.85219 0.378841,-0.18819 0.759459,-0.18389 1.138576,-0.004 z m 175.005032,70.1292 c 52.72711,-1.4199 109.51328,5.81279 156.17602,20.58685 25.82425,8.17628 43.66881,14.80857 39.6542,14.73458 -4.01476,-0.0732 -24.11887,-1.25299 -44.67539,-2.62233 -55.11798,-3.67145 -147.73146,17.97069 -211.18753,49.35048 -52.74951,26.08621 -54.98972,26.49776 -47.57614,8.71043 6.1317,-14.71124 4.75751,-23.68855 -6.48644,-42.37093 -17.48918,-29.05868 -12.3604,-32.63154 63.2468,-44.04387 16.14825,-2.43746 33.27285,-3.87191 50.84848,-4.34521 z"
       sodipodi:nodetypes="sccsccccsccscccssccsssccscccsssccsssssccssssscscccss" />
    <text
       transform="scale(0.98308784,1.0172031)"
       id="Collection"
       y="866.19891"
       x="53.324566"
       style="font-style:italic;font-variant:normal;font-weight:bold;font-stretch:normal;font-size:227.199px;line-height:0%;font-family:'URW Chancery L';-inkscape-font-specification:'URW Chancery L Bold Italic';font-variation-settings:normal;letter-spacing:2.5027px;word-spacing:0px;display:inline;opacity:1;vector-effect:none;fill:#6a5687;fill-opacity:1;stroke:none;stroke-width:0.999994;stroke-linecap:butt;stroke-linejoin:miter;stroke-miterlimit:4;stroke-dasharray:none;stroke-dashoffset:0;stroke-opacity:1;stop-color:#000000;stop-opacity:1"
       xml:space="preserve"
       inkscape:label="Collection"><tspan
         style="font-style:normal;font-variant:normal;font-weight:bold;font-stretch:normal;font-size:152.976px;line-height:1.25;font-family:sans-serif;-inkscape-font-specification:'Sans Bold';font-variation-settings:normal;vector-effect:none;fill:#6a5687;fill-opacity:1;stroke-width:0.999994;stroke-linecap:butt;stroke-linejoin:miter;stroke-miterlimit:4;stroke-dasharray:none;stroke-dashoffset:0;stroke-opacity:1;stop-color:#000000;stop-opacity:1"
         y="866.19891"
         x="53.324566"
         id="tspan38217-0"
         sodipodi:role="line">Des  livres</tspan></text>
    <text
       transform="scale(0.98308784,1.0172031)"
       id="Collection-7"
       y="987.80322"
       x="10.720067"
       style="font-style:italic;font-variant:normal;font-weight:bold;font-stretch:normal;font-size:227.199px;line-height:0%;font-family:'URW Chancery L';-inkscape-font-specification:'URW Chancery L Bold Italic';font-variation-settings:normal;letter-spacing:-10.0108px;word-spacing:0px;display:inline;opacity:1;vector-effect:none;fill:#cc2d18;fill-opacity:1;stroke:none;stroke-width:0.999994;stroke-linecap:butt;stroke-linejoin:miter;stroke-miterlimit:4;stroke-dasharray:none;stroke-dashoffset:0;stroke-opacity:1;stop-color:#000000;stop-opacity:1"
       xml:space="preserve"
       inkscape:label="Collection"><tspan
         style="font-style:normal;font-variant:normal;font-weight:bold;font-stretch:normal;font-size:152.976px;line-height:1.25;font-family:sans-serif;-inkscape-font-specification:'Sans Bold';font-variation-settings:normal;vector-effect:none;fill:#cc2d18;fill-opacity:1;stroke-width:0.999994;stroke-linecap:butt;stroke-linejoin:miter;stroke-miterlimit:4;stroke-dasharray:none;stroke-dashoffset:0;stroke-opacity:1;stop-color:#000000;stop-opacity:1"
         y="987.80322"
         x="10.720067"
         id="tspan38217-0-5"
         sodipodi:role="line">en Communs</tspan></text>
    <g
       id="g1868"
       transform="matrix(0.96679677,0,0,0.96679677,17.000027,-94.028094)"
       style="stroke-width:1.03435">
      <path
         id="path1559"
         d="m 80.129295,114.85123 c -8.473712,-0.3209 -13.023406,7.15349 -6.479472,12.78016 282.372507,133.92213 240.333637,260.59259 276.855727,406.21497 9.88184,39.39549 75.27872,345.5949 420.37396,375.24923 13.54065,1.16489 17.34158,-14.11943 3.63389,-17.76505 C 492.88673,816.4196 425.05309,323.86745 621.8269,305.97786 c 27.39341,-2.49098 35.68542,8.95725 56.42351,15.85432 20.73957,6.89853 53.35375,9.0774 63.11251,7.12565 18.53725,-33.95638 -14.34508,-72.79507 -41.91285,-101.38267 29.93859,-19.21567 126.24847,-40.53989 137.58973,-45.35919 7.17254,-3.0463 3.61923,-14.33628 -2.59355,-15.42059 -44.06534,2.62724 -148.91046,11.24015 -195.91808,29.16492 C 555.86004,146.01918 448.15175,184.9751 393.41625,270.22504 337.67703,189.31232 258.61789,164.70003 80.129295,114.85269 Z m 463.453165,76.51102 c 41.93337,0 40.77286,17.53206 -13.91429,36.18947 -65.71484,21.30662 -120.08842,74.57538 -135.7083,125.08356 -6.42525,-9.32504 24.46724,-145.6429 149.62259,-161.27303 z"
         inkscape:connector-curvature="0"
         inkscape:export-xdpi="13.896021"
         inkscape:export-ydpi="13.896021"
         style="fill:#000000;stroke-width:0.734721" />
      <path
         id="path1559-2"
         d="m 741.36292,328.95783 c -494.24195,-219.30522 -247.12097,-109.65261 0,0 z M 543.58246,191.36225 c 41.93337,0 40.77286,17.53206 -13.91429,36.18947 -65.71484,21.30662 -120.08842,74.57538 -135.7083,125.08356 -6.42525,-9.32504 24.46724,-145.6429 149.62259,-161.27303 z"
         inkscape:connector-curvature="0"
         inkscape:export-xdpi="13.896021"
         inkscape:export-ydpi="13.896021"
         style="display:inline;fill:#ffffff;fill-opacity:1;stroke-width:0.734721"
         sodipodi:nodetypes="cccccc" />
    </g>
  </g>
</svg>
